{
	"$schema": "https://schemas.wp.org/trunk/block.json",
	"apiVersion": 2,
	"name": "effidic/first-section",
	"version": "0.1.0",
	"title": "Entête",
	"category": "widgets",
	"icon": "format-image",
	"description": "Entête de page avec fond de couleur et motif.",
	"supports": {
		"html": false,
		"align": true
	},
	"attributes": {
		"align": {
			"type": "string",
			"default": "full"
		}
	},
	"textdomain": "effidic",
	"editorScript": "file:./index.js",
	"editorStyle": "file:./index.css",
	"style": "file:./style-index.css",
	"styles": [
		{
			"name": "basic-first-section",
			"label": "Section Entête Classique",
			"isDefault": true
		},
		{
			"name": "no-image",
			"label": "Section Entête No Image"
		}
	]
}