{
	"$schema": "https://schemas.wp.org/trunk/block.json",
	"apiVersion": 2,
	"name": "effidic/card",
	"version": "0.1.0",
	"title": "Carte Imagée",
	"category": "widgets",
	"icon": "chart-bar",
	"description": "Carte imagé",
	"supports": {
		"html": false
	},
	"textdomain": "effidic",
	"editorScript": "file:./index.js",
	"editorStyle": "file:./index.css",
	"style": "file:./style-index.css"
	
}